AOSD - Final Assignment
…
fatal_counts <- SF_accidents %>% 
                filter(accident_severity == "Fatal") %>% 
                group_by(police_force) %>% 
                summarise(count = n())
fatal_counts

## Simple feature collection with 44 features and 2 fields
## Geometry type: GEOMETRY
## Dimension:     XY
## Bounding box:  xmin: -6.411079 ymin: 50.08539 xmax: 1.738033 ymax: 59.08816
## Projected CRS: OSGB 1936 / British National Grid
## # A tibble: 44 x 3
##    police_force       count                                             geometry
##    <chr>              <int>                                       <GEOMETRY [m]>
##  1 Avon and Somerset     43 MULTIPOINT ((-3.649171 51.13259), (-3.527527 51.201~
##  2 Bedfordshire          16 MULTIPOINT ((-0.642223 51.96342), (-0.59308 52.1586~
##  3 Cambridgeshire        43 MULTIPOINT ((-0.486782 52.59481), (-0.480107 52.636~
##  4 Cheshire              26 MULTIPOINT ((-2.944491 53.24264), (-2.865651 53.263~
##  5 City of London         1                           POINT (-0.075176 51.51109)
##  6 Cleveland              9 MULTIPOINT ((-1.391481 54.61662), (-1.36116 54.5969~
##  7 Cumbria               22 MULTIPOINT ((-3.488816 54.70888), (-3.391363 54.664~
##  8 Derbyshire            29 MULTIPOINT ((-1.778282 53.28819), (-1.703443 52.881~
##  9 Devon and Cornwall    48 MULTIPOINT ((-5.473567 50.17899), (-5.410937 50.190~
## 10 Dorset                24 MULTIPOINT ((-2.933471 50.72458), (-2.761224 50.829~
## # ... with 34 more rows
…
